{
  "name": "Trader Joe Default",
  "logoURI": "https://raw.githubusercontent.com/traderjoe-xyz/joe-tokenlists/main/logos/0xB31f66AA3C1e785363F0875A1B74E27b85FD66c7/logo.png",
  "keywords": ["avalanche", "defi", "joe", "trader joe"],
  "version": {
    "major": 86,
    "minor": 0,
    "patch": 0
  },
  "tokens": [

  ],
  "timestamp": "2021-06-21T00:00:00+00:00"
}
